^C:\USERS\CAPP\DESKTOP\ITRC_CAR\CARSNUKT\SAKBOTBASEDDETECTOR\RCCARONPI\SOURCE\MAP.CPP|C:\USERS\CAPP\DESKTOP\ITRC_CAR\CARSNUKT\SAKBOTBASEDDETECTOR\SAKBOTBASEDDETECTOR\CARSNUKT\SOURCE\CARSNUKT.CPP|C:\USERS\CAPP\DESKTOP\ITRC_CAR\CARSNUKT\SAKBOTBASEDDETECTOR\SAKBOTBASEDDETECTOR\CARSNUKT\SOURCE\MAIN.CPP|C:\USERS\CAPP\DESKTOP\ITRC_CAR\CARSNUKT\SAKBOTBASEDDETECTOR\SAKBOTBASEDDETECTOR\CARSNUKT\SOURCE\SERIALPORT.CPP|C:\USERS\CAPP\DESKTOP\ITRC_CAR\CARSNUKT\SAKBOTBASEDDETECTOR\SAKBOTBASEDDETECTOR\CARSNUKT\SOURCE\WIFI.CPP
C:\USERS\CAPP\DESKTOP\ITRC_CAR\CARSNUKT\SAKBOTBASEDDETECTOR\SAKBOTBASEDDETECTOR\CARSNUKT\BUILD\VISUALSTUDIO\RELEASE\VC120.PDB
C:\USERS\CAPP\DESKTOP\ITRC_CAR\CARSNUKT\SAKBOTBASEDDETECTOR\SAKBOTBASEDDETECTOR\CARSNUKT\BUILD\VISUALSTUDIO\RELEASE\WIFI.OBJ
C:\USERS\CAPP\DESKTOP\ITRC_CAR\CARSNUKT\SAKBOTBASEDDETECTOR\SAKBOTBASEDDETECTOR\CARSNUKT\BUILD\VISUALSTUDIO\RELEASE\SERIALPORT.OBJ
C:\USERS\CAPP\DESKTOP\ITRC_CAR\CARSNUKT\SAKBOTBASEDDETECTOR\SAKBOTBASEDDETECTOR\CARSNUKT\BUILD\VISUALSTUDIO\RELEASE\CARSNUKT.OBJ
C:\USERS\CAPP\DESKTOP\ITRC_CAR\CARSNUKT\SAKBOTBASEDDETECTOR\SAKBOTBASEDDETECTOR\CARSNUKT\BUILD\VISUALSTUDIO\RELEASE\MAIN.OBJ
^C:\USERS\CAPP\DESKTOP\ITRC_CAR\CARSNUKT\SAKBOTBASEDDETECTOR\SAKBOTBASEDDETECTOR\CARSNUKT\SOURCE\SERIALPORT.CPP
C:\USERS\CAPP\DESKTOP\ITRC_CAR\CARSNUKT\SAKBOTBASEDDETECTOR\SAKBOTBASEDDETECTOR\CARSNUKT\BUILD\VISUALSTUDIO\RELEASE\SERIALPORT.OBJ
^C:\USERS\CAPP\DESKTOP\ITRC_CAR\CARSNUKT\SAKBOTBASEDDETECTOR\SAKBOTBASEDDETECTOR\CARSNUKT\SOURCE\CARSNUKT.CPP|C:\USERS\CAPP\DESKTOP\ITRC_CAR\CARSNUKT\SAKBOTBASEDDETECTOR\SAKBOTBASEDDETECTOR\CARSNUKT\SOURCE\MAIN.CPP|C:\USERS\CAPP\DESKTOP\ITRC_CAR\CARSNUKT\SAKBOTBASEDDETECTOR\SAKBOTBASEDDETECTOR\CARSNUKT\SOURCE\MAP.CPP
C:\USERS\CAPP\DESKTOP\ITRC_CAR\CARSNUKT\SAKBOTBASEDDETECTOR\SAKBOTBASEDDETECTOR\CARSNUKT\BUILD\VISUALSTUDIO\RELEASE\VC120.PDB
C:\USERS\CAPP\DESKTOP\ITRC_CAR\CARSNUKT\SAKBOTBASEDDETECTOR\SAKBOTBASEDDETECTOR\CARSNUKT\BUILD\VISUALSTUDIO\RELEASE\MAP.OBJ
C:\USERS\CAPP\DESKTOP\ITRC_CAR\CARSNUKT\SAKBOTBASEDDETECTOR\SAKBOTBASEDDETECTOR\CARSNUKT\BUILD\VISUALSTUDIO\RELEASE\CARSNUKT.OBJ
C:\USERS\CAPP\DESKTOP\ITRC_CAR\CARSNUKT\SAKBOTBASEDDETECTOR\SAKBOTBASEDDETECTOR\CARSNUKT\BUILD\VISUALSTUDIO\RELEASE\MAIN.OBJ
^C:\USERS\CAPP\DESKTOP\ITRC_CAR\CARSNUKT\SAKBOTBASEDDETECTOR\SAKBOTBASEDDETECTOR\CARSNUKT\SOURCE\MAP.CPP
C:\USERS\CAPP\DESKTOP\ITRC_CAR\CARSNUKT\SAKBOTBASEDDETECTOR\SAKBOTBASEDDETECTOR\CARSNUKT\BUILD\VISUALSTUDIO\RELEASE\VC120.PDB
^C:\USERS\CAPP\DESKTOP\ITRC_CAR\CARSNUKT\SAKBOTBASEDDETECTOR\SAKBOTBASEDDETECTOR\CARSNUKT\SOURCE\CARSNUKT.CPP|C:\USERS\CAPP\DESKTOP\ITRC_CAR\CARSNUKT\SAKBOTBASEDDETECTOR\SAKBOTBASEDDETECTOR\CARSNUKT\SOURCE\MAIN.CPP
C:\USERS\CAPP\DESKTOP\ITRC_CAR\CARSNUKT\SAKBOTBASEDDETECTOR\SAKBOTBASEDDETECTOR\CARSNUKT\BUILD\VISUALSTUDIO\RELEASE\VC120.PDB
C:\USERS\CAPP\DESKTOP\ITRC_CAR\CARSNUKT\SAKBOTBASEDDETECTOR\SAKBOTBASEDDETECTOR\CARSNUKT\BUILD\VISUALSTUDIO\RELEASE\CARSNUKT.OBJ
C:\USERS\CAPP\DESKTOP\ITRC_CAR\CARSNUKT\SAKBOTBASEDDETECTOR\SAKBOTBASEDDETECTOR\CARSNUKT\BUILD\VISUALSTUDIO\RELEASE\MAIN.OBJ
^C:\USERS\CAPP\DESKTOP\ITRC_CAR\CARSNUKT\SAKBOTBASEDDETECTOR\RCCARONPI\SOURCE\MAP.CPP|C:\USERS\CAPP\DESKTOP\ITRC_CAR\CARSNUKT\SAKBOTBASEDDETECTOR\SAKBOTBASEDDETECTOR\CARSNUKT\SOURCE\CARSNUKT.CPP
C:\USERS\CAPP\DESKTOP\ITRC_CAR\CARSNUKT\SAKBOTBASEDDETECTOR\SAKBOTBASEDDETECTOR\CARSNUKT\BUILD\VISUALSTUDIO\RELEASE\VC120.PDB
C:\USERS\CAPP\DESKTOP\ITRC_CAR\CARSNUKT\SAKBOTBASEDDETECTOR\SAKBOTBASEDDETECTOR\CARSNUKT\BUILD\VISUALSTUDIO\RELEASE\CARSNUKT.OBJ
C:\USERS\CAPP\DESKTOP\ITRC_CAR\CARSNUKT\SAKBOTBASEDDETECTOR\SAKBOTBASEDDETECTOR\CARSNUKT\BUILD\VISUALSTUDIO\RELEASE\MAP.OBJ
^C:\USERS\CAPP\DESKTOP\ITRC_CAR\CARSNUKT\SAKBOTBASEDDETECTOR\RCCARONPI\SOURCE\MAP.CPP|C:\USERS\CAPP\DESKTOP\ITRC_CAR\CARSNUKT\SAKBOTBASEDDETECTOR\SAKBOTBASEDDETECTOR\CARSNUKT\SOURCE\CARSNUKT.CPP|C:\USERS\CAPP\DESKTOP\ITRC_CAR\CARSNUKT\SAKBOTBASEDDETECTOR\SAKBOTBASEDDETECTOR\CARSNUKT\SOURCE\MAIN.CPP
C:\USERS\CAPP\DESKTOP\ITRC_CAR\CARSNUKT\SAKBOTBASEDDETECTOR\SAKBOTBASEDDETECTOR\CARSNUKT\BUILD\VISUALSTUDIO\RELEASE\VC120.PDB
C:\USERS\CAPP\DESKTOP\ITRC_CAR\CARSNUKT\SAKBOTBASEDDETECTOR\SAKBOTBASEDDETECTOR\CARSNUKT\BUILD\VISUALSTUDIO\RELEASE\MAIN.OBJ
C:\USERS\CAPP\DESKTOP\ITRC_CAR\CARSNUKT\SAKBOTBASEDDETECTOR\SAKBOTBASEDDETECTOR\CARSNUKT\BUILD\VISUALSTUDIO\RELEASE\CARSNUKT.OBJ
C:\USERS\CAPP\DESKTOP\ITRC_CAR\CARSNUKT\SAKBOTBASEDDETECTOR\SAKBOTBASEDDETECTOR\CARSNUKT\BUILD\VISUALSTUDIO\RELEASE\MAP.OBJ
^C:\USERS\CAPP\DESKTOP\ITRC_CAR\CARSNUKT\SAKBOTBASEDDETECTOR\RCCARONPI\SOURCE\MAP.CPP|C:\USERS\CAPP\DESKTOP\ITRC_CAR\CARSNUKT\SAKBOTBASEDDETECTOR\SAKBOTBASEDDETECTOR\CARSNUKT\SOURCE\CARSNUKT.CPP|C:\USERS\CAPP\DESKTOP\ITRC_CAR\CARSNUKT\SAKBOTBASEDDETECTOR\SAKBOTBASEDDETECTOR\CARSNUKT\SOURCE\MAIN.CPP|C:\USERS\CAPP\DESKTOP\ITRC_CAR\CARSNUKT\SAKBOTBASEDDETECTOR\SAKBOTBASEDDETECTOR\CARSNUKT\SOURCE\WIFI.CPP
C:\USERS\CAPP\DESKTOP\ITRC_CAR\CARSNUKT\SAKBOTBASEDDETECTOR\SAKBOTBASEDDETECTOR\CARSNUKT\BUILD\VISUALSTUDIO\RELEASE\VC120.PDB
C:\USERS\CAPP\DESKTOP\ITRC_CAR\CARSNUKT\SAKBOTBASEDDETECTOR\SAKBOTBASEDDETECTOR\CARSNUKT\BUILD\VISUALSTUDIO\RELEASE\MAIN.OBJ
C:\USERS\CAPP\DESKTOP\ITRC_CAR\CARSNUKT\SAKBOTBASEDDETECTOR\SAKBOTBASEDDETECTOR\CARSNUKT\BUILD\VISUALSTUDIO\RELEASE\WIFI.OBJ
C:\USERS\CAPP\DESKTOP\ITRC_CAR\CARSNUKT\SAKBOTBASEDDETECTOR\SAKBOTBASEDDETECTOR\CARSNUKT\BUILD\VISUALSTUDIO\RELEASE\CARSNUKT.OBJ
C:\USERS\CAPP\DESKTOP\ITRC_CAR\CARSNUKT\SAKBOTBASEDDETECTOR\SAKBOTBASEDDETECTOR\CARSNUKT\BUILD\VISUALSTUDIO\RELEASE\MAP.OBJ
^C:\USERS\CAPP\DESKTOP\ITRC_CAR\CARSNUKT\SAKBOTBASEDDETECTOR\SAKBOTBASEDDETECTOR\CARSNUKT\SOURCE\CARSNUKT.CPP|C:\USERS\CAPP\DESKTOP\ITRC_CAR\CARSNUKT\SAKBOTBASEDDETECTOR\SAKBOTBASEDDETECTOR\CARSNUKT\SOURCE\MAIN.CPP|C:\USERS\CAPP\DESKTOP\ITRC_CAR\CARSNUKT\SAKBOTBASEDDETECTOR\SAKBOTBASEDDETECTOR\CARSNUKT\SOURCE\WIFI.CPP
C:\USERS\CAPP\DESKTOP\ITRC_CAR\CARSNUKT\SAKBOTBASEDDETECTOR\SAKBOTBASEDDETECTOR\CARSNUKT\BUILD\VISUALSTUDIO\RELEASE\VC120.PDB
C:\USERS\CAPP\DESKTOP\ITRC_CAR\CARSNUKT\SAKBOTBASEDDETECTOR\SAKBOTBASEDDETECTOR\CARSNUKT\BUILD\VISUALSTUDIO\RELEASE\MAIN.OBJ
C:\USERS\CAPP\DESKTOP\ITRC_CAR\CARSNUKT\SAKBOTBASEDDETECTOR\SAKBOTBASEDDETECTOR\CARSNUKT\BUILD\VISUALSTUDIO\RELEASE\WIFI.OBJ
C:\USERS\CAPP\DESKTOP\ITRC_CAR\CARSNUKT\SAKBOTBASEDDETECTOR\SAKBOTBASEDDETECTOR\CARSNUKT\BUILD\VISUALSTUDIO\RELEASE\CARSNUKT.OBJ
^C:\USERS\CAPP\DESKTOP\ITRC_CAR\CARSNUKT\SAKBOTBASEDDETECTOR\SAKBOTBASEDDETECTOR\CARSNUKT\SOURCE\CARSNUKT.CPP
C:\USERS\CAPP\DESKTOP\ITRC_CAR\CARSNUKT\SAKBOTBASEDDETECTOR\SAKBOTBASEDDETECTOR\CARSNUKT\BUILD\VISUALSTUDIO\RELEASE\VC120.PDB
^C:\USERS\CAPP\DESKTOP\ITRC_CAR\CARSNUKT\SAKBOTBASEDDETECTOR\SAKBOTBASEDDETECTOR\CARSNUKT\SOURCE\WIFI.CPP
C:\USERS\CAPP\DESKTOP\ITRC_CAR\CARSNUKT\SAKBOTBASEDDETECTOR\SAKBOTBASEDDETECTOR\CARSNUKT\BUILD\VISUALSTUDIO\RELEASE\VC120.PDB
^C:\USERS\CAPP\DESKTOP\ITRC_CAR\CARSNUKT\SAKBOTBASEDDETECTOR\SAKBOTBASEDDETECTOR\CARSNUKT\SOURCE\MAIN.CPP
C:\USERS\CAPP\DESKTOP\ITRC_CAR\CARSNUKT\SAKBOTBASEDDETECTOR\SAKBOTBASEDDETECTOR\CARSNUKT\BUILD\VISUALSTUDIO\RELEASE\VC120.PDB
^C:\USERS\CAPP\DESKTOP\ITRC_CAR\CARSNUKT\SAKBOTBASEDDETECTOR\RCCARONPI\SOURCE\MAP.CPP
C:\USERS\CAPP\DESKTOP\ITRC_CAR\CARSNUKT\SAKBOTBASEDDETECTOR\SAKBOTBASEDDETECTOR\CARSNUKT\BUILD\VISUALSTUDIO\RELEASE\VC120.PDB
C:\USERS\CAPP\DESKTOP\ITRC_CAR\CARSNUKT\SAKBOTBASEDDETECTOR\SAKBOTBASEDDETECTOR\CARSNUKT\BUILD\VISUALSTUDIO\RELEASE\MAP.OBJ
