0.165476,0.165476,0.111111,0.058333,0.645238,1
0.192149,0.190083,0.081481,0.045833,0.574380,0
0.182353,0.210294,0.125926,0.041667,0.445588,0
0.213235,0.239706,0.125926,0.041667,0.447059,0
0.165476,0.154762,0.111111,0.058333,0.628571,1
0.181818,0.221591,0.081481,0.033333,0.443182,0
0.145833,0.125000,0.088889,0.029167,0.508929,0
0.163194,0.145833,0.088889,0.025000,0.538194,0
0.164835,0.263736,0.096296,0.029167,0.478022,0
0.215000,0.190000,0.074074,0.020833,0.525000,0
0.172619,0.154762,0.111111,0.058333,0.638095,1
0.176316,0.206579,0.140741,0.041667,0.522368,0
0.153571,0.152381,0.074074,0.087500,0.617857,1
0.136905,0.208333,0.088889,0.029167,0.538690,0
0.177273,0.240909,0.081481,0.020833,0.618182,0
0.187500,0.179924,0.088889,0.045833,0.604167,0
0.172619,0.157143,0.111111,0.058333,0.641667,1
0.156250,0.177083,0.044444,0.016667,0.562500,0
0.178571,0.178571,0.051852,0.012500,0.654762,0
0.277174,0.163723,0.170370,0.133333,0.520720,1
0.145455,0.195455,0.081481,0.020833,0.495455,0
0.170635,0.218254,0.066667,0.029167,0.384921,0
0.184343,0.154040,0.081481,0.037500,0.601010,0
0.170238,0.160714,0.111111,0.058333,0.642857,1
0.278061,0.191327,0.103704,0.058333,0.549745,1
0.199074,0.217593,0.066667,0.025000,0.472222,0
0.320833,0.161111,0.111111,0.050000,0.598611,1
0.149351,0.188312,0.081481,0.029167,0.428571,0
0.250000,0.209486,0.162963,0.095833,0.519763,1
0.161111,0.205556,0.066667,0.020833,0.444444,0
0.165476,0.159524,0.111111,0.058333,0.634524,1
0.197917,0.248264,0.118519,0.037500,0.449653,0
0.140152,0.181818,0.081481,0.025000,0.518939,0
0.242424,0.188853,0.155556,0.091667,0.549784,1
0.218750,0.263672,0.118519,0.033333,0.431641,0
0.205357,0.250000,0.051852,0.016667,0.598214,0
0.265625,0.198390,0.162963,0.100000,0.511837,1
0.204167,0.233333,0.074074,0.025000,0.508333,0
0.212810,0.171488,0.081481,0.045833,0.638430,0
0.200000,0.250000,0.059259,0.020833,0.443750,0
0.294872,0.165385,0.111111,0.054167,0.566667,1
0.163095,0.160714,0.111111,0.058333,0.636905,1
0.214286,0.226190,0.066667,0.029167,0.515873,0
0.130682,0.174242,0.081481,0.050000,0.585227,0
0.167857,0.150000,0.111111,0.058333,0.633333,1
0.182143,0.225000,0.074074,0.029167,0.442857,0
0.268519,0.138889,0.066667,0.012500,0.592593,0
0.178571,0.157143,0.111111,0.058333,0.648810,1
0.243750,0.175000,0.074074,0.016667,0.512500,0
0.265625,0.202652,0.162963,0.100000,0.520360,1
0.193182,0.156818,0.081481,0.041667,0.581818,0
0.187908,0.241830,0.125926,0.037500,0.495098,0
0.175000,0.163889,0.074074,0.037500,0.638889,0
0.166667,0.147727,0.081481,0.025000,0.560606,0
0.169048,0.173810,0.111111,0.058333,0.648810,1
0.184375,0.200000,0.074074,0.033333,0.440625,0
0.164286,0.159524,0.103704,0.062500,0.613095,1
0.264205,0.200284,0.162963,0.100000,0.515625,1
0.244565,0.180978,0.148148,0.095833,0.495652,1
0.201389,0.145833,0.066667,0.016667,0.444444,0
0.212963,0.175926,0.066667,0.012500,0.620370,0
0.104167,0.148810,0.088889,0.029167,0.428571,0
0.191176,0.248663,0.125926,0.045833,0.438503,0
0.158730,0.238095,0.066667,0.029167,0.488095,0
0.161111,0.244444,0.066667,0.020833,0.400000,0
0.203598,0.160985,0.088889,0.091667,0.584280,1
0.179630,0.220370,0.111111,0.037500,0.411111,0
0.136161,0.187500,0.103704,0.033333,0.426339,0
0.272321,0.169271,0.177778,0.116667,0.477307,1
0.166667,0.212500,0.088889,0.020833,0.583333,0
0.233333,0.283333,0.066667,0.020833,0.577778,0
0.173810,0.146429,0.111111,0.058333,0.628571,1
0.320313,0.166667,0.118519,0.050000,0.654948,1
0.179688,0.240625,0.118519,0.041667,0.500000,0
0.268750,0.156250,0.074074,0.016667,0.568750,0
0.170455,0.232955,0.081481,0.050000,0.558712,0
0.255456,0.201885,0.155556,0.100000,0.530258,1
0.128788,0.306818,0.081481,0.025000,0.602273,0
0.161255,0.138528,0.081481,0.087500,0.607143,1
0.181818,0.221591,0.081481,0.016667,0.636364,0
0.200000,0.258333,0.044444,0.020833,0.541667,0
0.250000,0.185185,0.066667,0.012500,0.620370,0
0.233951,0.206481,0.200000,0.125000,0.491667,1
0.192857,0.217857,0.074074,0.029167,0.460714,0
0.111111,0.152778,0.044444,0.012500,0.625000,0
0.166667,0.153571,0.111111,0.058333,0.628571,1
0.203125,0.223438,0.118519,0.041667,0.429688,0
0.165476,0.155952,0.111111,0.058333,0.630952,1
0.163690,0.145833,0.088889,0.029167,0.500000,0
0.175000,0.215000,0.074074,0.020833,0.450000,0
0.163462,0.152644,0.096296,0.066667,0.609375,1
0.165476,0.152381,0.111111,0.058333,0.630952,1
0.233846,0.171538,0.185185,0.108333,0.528077,1
0.261429,0.197619,0.155556,0.104167,0.503333,1
0.297436,0.176923,0.111111,0.054167,0.623077,1
0.109091,0.209091,0.081481,0.020833,0.645455,0
0.171875,0.184375,0.074074,0.033333,0.603125,0
0.183333,0.166667,0.074074,0.025000,0.433333,0
0.207108,0.210784,0.125926,0.050000,0.392157,0
0.267519,0.200758,0.162963,0.100000,0.515152,1
0.176190,0.155952,0.111111,0.058333,0.634524,1
0.166667,0.153571,0.111111,0.058333,0.636905,1
0.185000,0.225000,0.074074,0.020833,0.745000,0
0.319010,0.177083,0.118519,0.050000,0.678385,1
0.185950,0.155992,0.081481,0.091667,0.583678,1
0.133333,0.241667,0.074074,0.025000,0.666667,0
0.160000,0.210000,0.074074,0.020833,0.670000,0
0.261429,0.197619,0.155556,0.104167,0.506667,1
0.157051,0.160256,0.096296,0.025000,0.483974,0
0.187500,0.062500,0.051852,0.016667,0.589286,0
0.191667,0.161111,0.074074,0.037500,0.605556,0
0.265152,0.198864,0.162963,0.100000,0.513731,1
0.165476,0.160714,0.111111,0.058333,0.642857,1
0.146154,0.151282,0.096296,0.062500,0.634615,1
0.279762,0.183333,0.103704,0.062500,0.544048,1
0.187500,0.187500,0.059259,0.012500,0.645833,0
0.201754,0.194444,0.140741,0.037500,0.538012,0
0.166667,0.158333,0.074074,0.025000,0.425000,0
0.165179,0.267857,0.059259,0.029167,0.419643,0
0.181250,0.131250,0.074074,0.033333,0.506250,0
0.255682,0.206439,0.162963,0.100000,0.518939,1
0.209280,0.162879,0.088889,0.091667,0.605114,1
0.177381,0.160714,0.111111,0.058333,0.648810,1
0.201316,0.228947,0.140741,0.041667,0.510526,0
0.163636,0.250000,0.081481,0.020833,0.627273,0
0.261905,0.166667,0.051852,0.012500,0.630952,0
0.203704,0.240741,0.066667,0.012500,0.555556,0
0.177778,0.166667,0.074074,0.037500,0.583333,0
0.172222,0.194444,0.066667,0.020833,0.544444,0
0.203704,0.217593,0.066667,0.025000,0.476852,0
0.183712,0.159091,0.081481,0.050000,0.598485,0
0.162088,0.160714,0.096296,0.058333,0.697802,1
0.267045,0.200284,0.162963,0.100000,0.519413,1
0.200000,0.204412,0.125926,0.041667,0.441176,0
0.192045,0.159091,0.148148,0.045833,0.439773,0
0.173077,0.257212,0.096296,0.033333,0.439904,0
0.216667,0.183333,0.037037,0.012500,0.650000,0
0.197421,0.142857,0.088889,0.087500,0.566468,1
0.186111,0.172222,0.074074,0.037500,0.580556,0
0.196429,0.107143,0.051852,0.016667,0.651786,0
0.205357,0.151786,0.051852,0.016667,0.553571,0
0.260890,0.198864,0.162963,0.100000,0.510417,1
0.156818,0.229545,0.074074,0.045833,0.547727,0
0.177381,0.140476,0.111111,0.058333,0.627381,1
0.306122,0.140306,0.103704,0.058333,0.525510,1
0.185606,0.162879,0.081481,0.025000,0.393939,0
0.158333,0.233333,0.074074,0.012500,0.558333,0
0.165064,0.225962,0.088889,0.054167,0.570513,0
0.183036,0.170759,0.103704,0.066667,0.612723,1
0.207516,0.232026,0.125926,0.037500,0.462418,0
0.169048,0.164286,0.111111,0.058333,0.639286,1
0.173611,0.215278,0.088889,0.012500,0.576389,0
0.190341,0.218750,0.081481,0.033333,0.448864,0
0.165476,0.161905,0.111111,0.058333,0.636905,1
0.213068,0.165720,0.088889,0.091667,0.574811,1
0.159375,0.225000,0.074074,0.033333,0.459375,0
0.170833,0.170833,0.088889,0.041667,0.602083,0
0.203846,0.119231,0.096296,0.020833,0.450000,0
0.167857,0.150000,0.111111,0.058333,0.633333,1
0.246753,0.189935,0.155556,0.091667,0.574675,1
0.184028,0.222222,0.088889,0.025000,0.385417,0
0.268939,0.196496,0.162963,0.100000,0.515625,1
0.155556,0.205556,0.066667,0.020833,0.616667,0
0.170455,0.221591,0.081481,0.033333,0.397727,0
0.181818,0.218182,0.081481,0.020833,0.513636,0
0.165476,0.158333,0.111111,0.058333,0.635714,1
0.260890,0.198390,0.162963,0.100000,0.528883,1
0.197917,0.208333,0.059259,0.025000,0.515625,0
0.192708,0.189236,0.088889,0.050000,0.538194,0
0.166667,0.142857,0.051852,0.012500,0.607143,0
0.239110,0.196496,0.177778,0.091667,0.603693,1
0.299451,0.137363,0.103704,0.054167,0.552198,1
0.196429,0.071429,0.051852,0.016667,0.589286,0
0.261837,0.198390,0.162963,0.100000,0.509470,1
0.214912,0.209064,0.140741,0.037500,0.529240,0
0.178571,0.125000,0.051852,0.016667,0.589286,0
0.196429,0.265625,0.103704,0.033333,0.426339,0
0.131944,0.156250,0.088889,0.025000,0.520833,0
0.142857,0.116071,0.051852,0.016667,0.544643,0
0.218750,0.145833,0.059259,0.012500,0.593750,0
0.200893,0.207589,0.103704,0.033333,0.493304,0
0.187500,0.225000,0.074074,0.050000,0.531250,0
0.177778,0.172222,0.074074,0.037500,0.569444,0
0.163095,0.157143,0.111111,0.058333,0.629762,1
0.150000,0.268182,0.081481,0.020833,0.654545,0
0.198661,0.281250,0.103704,0.033333,0.470982,0
0.217014,0.217014,0.088889,0.050000,0.579861,0
0.238462,0.184615,0.096296,0.020833,0.457692,0
0.254348,0.204891,0.148148,0.095833,0.507609,1
0.172222,0.205556,0.066667,0.020833,0.544444,0
0.200175,0.147727,0.096296,0.091667,0.557692,1
0.160714,0.223214,0.051852,0.016667,0.562500,0
0.172619,0.158333,0.111111,0.058333,0.638095,1
0.208333,0.192708,0.059259,0.025000,0.536458,0
0.212963,0.175926,0.066667,0.012500,0.601852,0
0.152778,0.145833,0.088889,0.025000,0.545139,0
0.179688,0.289063,0.059259,0.016667,0.570313,0
0.232323,0.179293,0.081481,0.037500,0.611111,0
0.169643,0.125000,0.051852,0.016667,0.553571,0
0.268366,0.172414,0.170370,0.120833,0.510495,1
0.271307,0.196023,0.162963,0.100000,0.514678,1
0.226190,0.154762,0.051852,0.012500,0.630952,0
0.165476,0.153571,0.111111,0.058333,0.632143,1
0.181548,0.250000,0.088889,0.029167,0.508929,0
0.193182,0.177273,0.148148,0.045833,0.495455,0
0.258893,0.212451,0.162963,0.095833,0.514822,1
0.142628,0.182692,0.096296,0.050000,0.493590,0
0.194444,0.152778,0.088889,0.012500,0.527778,0
0.210938,0.210938,0.059259,0.016667,0.578125,0
0.165476,0.161905,0.111111,0.058333,0.640476,1
0.260417,0.196970,0.162963,0.100000,0.525095,1
0.247396,0.191406,0.177778,0.100000,0.583767,1
0.166667,0.154762,0.111111,0.058333,0.636905,1
0.209091,0.172727,0.081481,0.041667,0.625000,0
0.186508,0.242063,0.103704,0.037500,0.456349,0
0.158333,0.220833,0.074074,0.025000,0.425000,0
0.292157,0.170588,0.125926,0.062500,0.614706,1
0.183333,0.241667,0.074074,0.025000,0.508333,0
0.166667,0.131944,0.088889,0.025000,0.503472,0
0.145833,0.229167,0.066667,0.016667,0.631944,0
0.259317,0.180642,0.155556,0.095833,0.530021,1
0.222222,0.225000,0.133333,0.041667,0.465278,0
0.189394,0.219697,0.081481,0.025000,0.454545,0
0.225000,0.168182,0.081481,0.041667,0.572727,0
0.231481,0.255556,0.111111,0.037500,0.416667,0
0.171429,0.221429,0.051852,0.020833,0.564286,0
0.175325,0.272727,0.081481,0.029167,0.500000,0
0.179545,0.177273,0.081481,0.041667,0.620455,0
0.191667,0.262500,0.074074,0.025000,0.654167,0
0.148601,0.209790,0.081481,0.054167,0.536713,0
0.210784,0.250000,0.125926,0.037500,0.498366,0
0.145833,0.241667,0.074074,0.025000,0.404167,0
0.170238,0.145238,0.111111,0.058333,0.622619,1
0.177381,0.150000,0.111111,0.058333,0.629762,1
0.267519,0.203598,0.162963,0.100000,0.522254,1
0.161667,0.245000,0.111111,0.041667,0.463333,0
0.100000,0.350000,0.081481,0.020833,0.586364,0
0.205556,0.111111,0.066667,0.020833,0.461111,0
0.261837,0.201231,0.162963,0.100000,0.517519,1
0.165476,0.152381,0.111111,0.058333,0.632143,1
0.265625,0.196023,0.162963,0.100000,0.509470,1
0.202020,0.176768,0.081481,0.037500,0.608586,0
0.172727,0.204545,0.081481,0.041667,0.370455,0
0.136364,0.186364,0.081481,0.020833,0.427273,0
0.226817,0.178571,0.140741,0.087500,0.466165,1
0.142361,0.173611,0.088889,0.025000,0.482639,0
0.136364,0.257576,0.081481,0.025000,0.564394,0
0.191667,0.150000,0.074074,0.012500,0.541667,0
0.248967,0.192665,0.162963,0.091667,0.571798,1
0.239583,0.250000,0.059259,0.025000,0.510417,0
0.238095,0.166667,0.051852,0.012500,0.595238,0
0.206250,0.181250,0.074074,0.033333,0.596875,0
0.259470,0.200758,0.162963,0.100000,0.510417,1
0.175000,0.146429,0.111111,0.058333,0.626190,1
0.155844,0.243506,0.081481,0.029167,0.435065,0
0.183333,0.158333,0.074074,0.025000,0.441667,0
0.273990,0.180871,0.177778,0.137500,0.525568,1
0.193056,0.215278,0.133333,0.041667,0.468056,0
0.239583,0.166667,0.059259,0.012500,0.593750,0
0.175000,0.170000,0.074074,0.020833,0.480000,0
0.221429,0.178571,0.051852,0.020833,0.500000,0
0.172619,0.159524,0.111111,0.058333,0.629762,1
0.234375,0.234375,0.059259,0.016667,0.585938,0
0.261364,0.198864,0.162963,0.100000,0.510417,1
0.212810,0.171488,0.081481,0.045833,0.615702,0
0.261364,0.202178,0.162963,0.100000,0.513731,1
0.175595,0.232143,0.088889,0.029167,0.416667,0
0.170000,0.120000,0.074074,0.020833,0.515000,0
0.187500,0.194444,0.066667,0.033333,0.642361,0
0.193750,0.106250,0.059259,0.020833,0.537500,0
0.205000,0.195000,0.074074,0.020833,0.580000,0
0.184028,0.223958,0.088889,0.050000,0.578125,0
0.266098,0.199811,0.162963,0.100000,0.519886,1
0.189904,0.223558,0.096296,0.033333,0.415865,0
0.269886,0.200758,0.162963,0.100000,0.519413,1
0.195833,0.204167,0.074074,0.025000,0.462500,0
0.197917,0.218750,0.088889,0.016667,0.635417,0
0.229167,0.156250,0.059259,0.012500,0.666667,0
0.137500,0.175000,0.088889,0.020833,0.475000,0
0.212500,0.233333,0.074074,0.025000,0.495833,0
0.213542,0.208333,0.059259,0.025000,0.453125,0
0.157407,0.199074,0.066667,0.025000,0.472222,0
0.154762,0.232143,0.088889,0.029167,0.446429,0
0.166667,0.220833,0.074074,0.050000,0.539583,0
0.196181,0.243056,0.118519,0.037500,0.449653,0
0.213542,0.229167,0.059259,0.025000,0.479167,0
0.168182,0.213636,0.081481,0.020833,0.613636,0
0.247917,0.163333,0.177778,0.104167,0.542083,1
0.165064,0.195513,0.088889,0.054167,0.552885,0
0.146154,0.139744,0.111111,0.054167,0.638462,1
0.181818,0.200535,0.125926,0.045833,0.426471,0
0.166667,0.175926,0.066667,0.025000,0.495370,0
0.166667,0.153571,0.111111,0.058333,0.632143,1
0.188750,0.195000,0.148148,0.041667,0.500000,0
0.210714,0.223214,0.103704,0.041667,0.455357,0
0.178571,0.221429,0.051852,0.020833,0.514286,0
0.194118,0.232353,0.125926,0.041667,0.463235,0
0.258399,0.210474,0.162963,0.095833,0.512846,1
0.255929,0.213439,0.162963,0.095833,0.517787,1
0.271739,0.203416,0.155556,0.095833,0.533126,1
0.231250,0.206250,0.059259,0.020833,0.475000,0
0.250000,0.222222,0.066667,0.020833,0.538889,0
0.290850,0.204248,0.125926,0.075000,0.562908,1
0.148438,0.218750,0.059259,0.016667,0.531250,0
0.178947,0.206579,0.140741,0.041667,0.480263,0
0.169643,0.214286,0.051852,0.016667,0.589286,0
0.226190,0.214286,0.051852,0.012500,0.583333,0
0.202381,0.238095,0.103704,0.037500,0.482143,0
0.175926,0.199074,0.066667,0.025000,0.444444,0
0.150000,0.116667,0.037037,0.012500,0.666667,0
0.169048,0.172619,0.111111,0.058333,0.652381,1
0.201389,0.141865,0.088889,0.087500,0.557540,1
0.213542,0.229167,0.059259,0.025000,0.494792,0
0.193750,0.165625,0.074074,0.033333,0.634375,0
0.221074,0.190083,0.081481,0.045833,0.613636,0
0.152083,0.206250,0.074074,0.050000,0.552083,0
0.263340,0.209486,0.162963,0.095833,0.514822,1
0.203125,0.213542,0.059259,0.025000,0.520833,0
0.264243,0.178786,0.170370,0.120833,0.510495,1
0.150350,0.215035,0.081481,0.054167,0.512238,0
0.323864,0.178977,0.118519,0.045833,0.651989,1
0.163194,0.194444,0.088889,0.025000,0.388889,0
0.291522,0.147924,0.125926,0.070833,0.570069,1
0.262784,0.201705,0.162963,0.100000,0.518466,1
0.140909,0.150000,0.081481,0.020833,0.463636,0
0.171429,0.200000,0.074074,0.029167,0.496429,0
0.240741,0.236111,0.066667,0.025000,0.500000,0
0.156250,0.203125,0.059259,0.025000,0.437500,0
0.176190,0.150000,0.111111,0.058333,0.630952,1
0.238095,0.166667,0.051852,0.012500,0.630952,0
0.139583,0.204167,0.074074,0.050000,0.547917,0
0.243056,0.215278,0.066667,0.016667,0.638889,0
0.160000,0.205000,0.074074,0.020833,0.485000,0
0.207792,0.240260,0.081481,0.029167,0.409091,0
0.250000,0.147727,0.081481,0.016667,0.602273,0
0.165476,0.159524,0.111111,0.058333,0.634524,1
0.172619,0.159524,0.111111,0.058333,0.642857,1
0.172917,0.222917,0.074074,0.050000,0.564583,0
0.156250,0.222222,0.088889,0.025000,0.434028,0
0.261409,0.173611,0.177778,0.087500,0.585317,1
0.162500,0.225000,0.074074,0.025000,0.504167,0
0.301339,0.172991,0.118519,0.058333,0.628348,1
0.187500,0.250000,0.081481,0.016667,0.534091,0
0.200000,0.183333,0.074074,0.037500,0.625000,0
0.227778,0.222222,0.111111,0.037500,0.485185,0
0.187500,0.215278,0.066667,0.016667,0.625000,0
0.184091,0.172727,0.081481,0.041667,0.609091,0
0.172619,0.157143,0.111111,0.058333,0.628571,1
0.134470,0.232955,0.081481,0.050000,0.537879,0
0.165476,0.158333,0.111111,0.058333,0.629762,1
0.245109,0.205978,0.148148,0.095833,0.491304,1
0.183333,0.244444,0.111111,0.037500,0.481481,0
0.170238,0.165476,0.111111,0.058333,0.639286,1
0.263756,0.193182,0.140741,0.091667,0.515550,1
0.256957,0.188261,0.170370,0.104167,0.485217,1
0.204545,0.221591,0.081481,0.033333,0.454545,0
0.153846,0.142857,0.096296,0.058333,0.684066,1
0.223856,0.241830,0.125926,0.037500,0.455882,0
0.178571,0.236264,0.096296,0.029167,0.480769,0
0.136905,0.241071,0.088889,0.029167,0.366071,0
0.177083,0.145833,0.044444,0.016667,0.541667,0
0.309896,0.165365,0.118519,0.050000,0.634115,1
0.259387,0.207510,0.162963,0.095833,0.513340,1
0.259943,0.199811,0.162963,0.100000,0.512311,1
0.184375,0.225000,0.118519,0.041667,0.467187,0
0.171429,0.166667,0.111111,0.058333,0.644048,1
0.146154,0.142308,0.111111,0.054167,0.647436,1
0.170330,0.217033,0.096296,0.029167,0.521978,0
0.102273,0.155303,0.081481,0.025000,0.492424,0
0.230556,0.175000,0.074074,0.037500,0.644444,0
0.267411,0.179464,0.148148,0.116667,0.545536,1
0.183824,0.180882,0.125926,0.041667,0.516176,0
0.164286,0.151190,0.103704,0.062500,0.625000,1
0.227273,0.164141,0.081481,0.037500,0.646465,0
0.175000,0.240000,0.074074,0.020833,0.465000,0
0.194444,0.158333,0.074074,0.037500,0.563889,0
0.185950,0.173554,0.081481,0.045833,0.580579,0
0.272254,0.201231,0.162963,0.100000,0.517045,1
0.203704,0.245370,0.066667,0.025000,0.532407,0
0.243789,0.203416,0.155556,0.095833,0.547101,1
0.165625,0.228125,0.074074,0.033333,0.459375,0
0.165476,0.157143,0.111111,0.058333,0.634524,1
0.186364,0.175000,0.081481,0.041667,0.593182,0
0.216667,0.225000,0.111111,0.033333,0.537500,0
0.183333,0.211111,0.066667,0.020833,0.483333,0
0.204545,0.236364,0.081481,0.020833,0.477273,0
0.200000,0.240741,0.111111,0.037500,0.514815,0
0.149306,0.217014,0.088889,0.050000,0.548611,0
0.214286,0.154762,0.051852,0.012500,0.690476,0
0.191558,0.256494,0.081481,0.029167,0.503247,0
0.158333,0.147619,0.111111,0.058333,0.621429,1
0.237500,0.206250,0.059259,0.020833,0.568750,0
0.257905,0.212451,0.162963,0.095833,0.515316,1
0.192593,0.244444,0.111111,0.037500,0.466667,0
0.169048,0.152381,0.111111,0.058333,0.641667,1
0.212454,0.143773,0.096296,0.087500,0.532051,1
0.181490,0.146635,0.118519,0.054167,0.662260,1
0.159091,0.227273,0.081481,0.016667,0.676136,0
0.165123,0.214506,0.133333,0.037500,0.466049,0
0.249012,0.214921,0.162963,0.095833,0.510375,1
0.253314,0.171402,0.177778,0.091667,0.586174,1
0.218750,0.177083,0.059259,0.012500,0.645833,0
0.263834,0.210968,0.162963,0.095833,0.511858,1
0.218750,0.275000,0.059259,0.020833,0.543750,0
0.189103,0.169872,0.096296,0.025000,0.397436,0
0.174242,0.246212,0.081481,0.025000,0.465909,0
0.264678,0.199337,0.162963,0.100000,0.511837,1
0.202020,0.174242,0.081481,0.037500,0.618687,0
0.164286,0.163095,0.111111,0.058333,0.642857,1
0.090909,0.189394,0.081481,0.025000,0.458333,0
0.202546,0.202546,0.133333,0.050000,0.478009,0
0.258399,0.203557,0.162963,0.095833,0.509387,1
0.189286,0.217857,0.074074,0.029167,0.378571,0
0.179688,0.209375,0.118519,0.041667,0.437500,0
0.250000,0.166667,0.059259,0.012500,0.666667,0
0.262311,0.200758,0.162963,0.100000,0.514205,1
0.206818,0.179545,0.081481,0.041667,0.654545,0
0.130000,0.285000,0.074074,0.020833,0.500000,0
0.166667,0.213384,0.133333,0.045833,0.430556,0
0.222222,0.203704,0.066667,0.025000,0.425926,0
0.133929,0.199405,0.088889,0.029167,0.568452,0
0.195313,0.204687,0.118519,0.041667,0.406250,0
0.166667,0.153571,0.111111,0.058333,0.632143,1
0.197500,0.247500,0.148148,0.041667,0.510000,0
0.263258,0.197917,0.162963,0.100000,0.507102,1
0.166667,0.158333,0.111111,0.058333,0.641667,1
0.270408,0.181122,0.103704,0.058333,0.536990,1
0.286301,0.176136,0.177778,0.137500,0.542929,1
0.180556,0.172222,0.074074,0.037500,0.566667,0
0.211806,0.192708,0.118519,0.037500,0.423611,0
0.233333,0.261111,0.066667,0.020833,0.538889,0
0.167857,0.155952,0.111111,0.058333,0.632143,1
0.164286,0.155952,0.111111,0.058333,0.627381,1
0.163636,0.227273,0.081481,0.020833,0.472727,0
0.144444,0.227778,0.066667,0.020833,0.455556,0
