^E:\[1]DATA\[RESEARCH]\[CAPP]\[3]VIDEOMINING\[6]CARDETECTION\[2]PROGRAMS\SAKBOTBASEDDETECTOR\CARSNUKT\BUILD\VISUALSTUDIO\DEBUG\CARSNUKT.OBJ|E:\[1]DATA\[RESEARCH]\[CAPP]\[3]VIDEOMINING\[6]CARDETECTION\[2]PROGRAMS\SAKBOTBASEDDETECTOR\CARSNUKT\BUILD\VISUALSTUDIO\DEBUG\MAIN.OBJ|E:\[1]DATA\[RESEARCH]\[CAPP]\[3]VIDEOMINING\[6]CARDETECTION\[2]PROGRAMS\SAKBOTBASEDDETECTOR\CARSNUKT\BUILD\VISUALSTUDIO\DEBUG\SERIALPORT.OBJ|E:\[1]DATA\[RESEARCH]\[CAPP]\[3]VIDEOMINING\[6]CARDETECTION\[2]PROGRAMS\SAKBOTBASEDDETECTOR\CARSNUKT\BUILD\VISUALSTUDIO\DEBUG\WIFI.OBJ
E:\[1]DATA\[RESEARCH]\[CAPP]\[3]VIDEOMINING\[6]CARDETECTION\[2]PROGRAMS\SAKBOTBASEDDETECTOR\CARSNUKT\BUILD\VISUALSTUDIO\DEBUG\SAKBOTBASEDDET.ILK
E:\[1]DATA\[RESEARCH]\[CAPP]\[3]VIDEOMINING\[6]CARDETECTION\[2]PROGRAMS\SAKBOTBASEDDETECTOR\CARSNUKT\BUILD\VISUALSTUDIO\DEBUG\SAKBOTBASEDDET.EXE
E:\[1]DATA\[RESEARCH]\[CAPP]\[3]VIDEOMINING\[6]CARDETECTION\[2]PROGRAMS\SAKBOTBASEDDETECTOR\CARSNUKT\BUILD\VISUALSTUDIO\DEBUG\SAKBOTBASEDDET.PDB
